D:\DatabaseProject\src\main\java\com\mycompany\databaseproject\dao\Dao.java
D:\DatabaseProject\src\main\java\com\mycompany\databaseproject\SelectDatabase.java
D:\DatabaseProject\src\main\java\com\mycompany\databaseproject\model\User.java
D:\DatabaseProject\src\main\java\com\mycompany\databaseproject\dao\UserDao.java
D:\DatabaseProject\src\main\java\com\mycompany\databaseproject\helper\DatabaseHelper.java
D:\DatabaseProject\src\main\java\com\mycompany\databaseproject\DeleteDatabase.java
D:\DatabaseProject\src\main\java\com\mycompany\databaseproject\InsertDatabase.java
D:\DatabaseProject\src\main\java\com\mycompany\databaseproject\TestUserDao.java
D:\DatabaseProject\src\main\java\com\mycompany\databaseproject\UpdateDatabase.java
D:\DatabaseProject\src\main\java\com\mycompany\databaseproject\ConnectDatabase.java
